{"options": 
    {
    "secondary-peg-options":
    {
            "wallshift-threshold": 0.05,
            "main-feed":"blockchain",
            "backup-feeds": {
                "backup1" : { "name" : "coinbase"},
                "backup2" : { "name" : "btce"}
                }
    }
 }
}